{
  "type": "FeatureCollection",
  "features": [
    {
      "type": "Feature",
      "geometry": {
        "type": "Polygon",
        "coordinates": [
          [
            [
              -122.91065570008374,
              49.27784642617659
            ],
            [
              -122.91059602093316,
              49.277836364536206
            ],
            [
              -122.91054975282765,
              49.27782980259565
            ],
            [
              -122.91053231846905,
              49.27787704854803
            ],
            [
              -122.91063960682965,
              49.27789279782972
            ],
            [
              -122.91065570008374,
              49.27784642617659
            ]
          ]
        ]
      },
      "properties": {}
    },
    {
      "type": "Feature",
      "geometry": {
        "type": "Polygon",
        "coordinates": [
          [
            [
              -122.91065886425218,
              49.27783330229723
            ],
            [
              -122.91056230472765,
              49.27781842856322
            ],
            [
              -122.910626677744,
              49.27763994340477
            ],
            [
              -122.91072055505953,
              49.27765569212119
            ],
            [
              -122.91065886425218,
              49.27783330229723
            ]
          ]
        ]
      },
      "properties": {}
    },
    {
      "type": "Feature",
      "geometry": {
        "type": "Polygon",
        "coordinates": [
          [
            [
              -122.91051134275637,
              49.277789556007875
            ],
            [
              -122.91043892311296,
              49.27777730703993
            ],
            [
              -122.91049659060678,
              49.27761894510837
            ],
            [
              -122.91057035135469,
              49.2776311941157
            ],
            [
              -122.91051134275637,
              49.277789556007875
            ]
          ]
        ]
      },
      "properties": {}
    },
    {
      "type": "Feature",
      "geometry": {
        "type": "Polygon",
        "coordinates": [
          [
            [
              -122.91035979794702,
              49.27776418314229
            ],
            [
              -122.9102833549901,
              49.27775193416807
            ],
            [
              -122.91034370469293,
              49.27759357215498
            ],
            [
              -122.91041880654535,
              49.27760582116864
            ],
            [
              -122.91035979794702,
              49.277765058068915
            ],
            [
              -122.91035979794702,
              49.27776418314229
            ]
          ]
        ]
      },
      "properties": {}
    },
    {
      "type": "Feature",
      "geometry": {
        "type": "Polygon",
        "coordinates": [
          [
            [
              -122.91019886540613,
              49.27773881026366
            ],
            [
              -122.91012644576273,
              49.277727436210284
            ],
            [
              -122.91018679546556,
              49.277567324258406
            ],
            [
              -122.91026189731798,
              49.27757869834862
            ],
            [
              -122.91020154761515,
              49.27773793533642
            ],
            [
              -122.91019886540613,
              49.27773881026366
            ]
          ]
        ]
      },
      "properties": {}
    },
    {
      "type": "Feature",
      "geometry": {
        "type": "Polygon",
        "coordinates": [
          [
            [
              -122.91004746345055,
              49.27771367488335
            ],
            [
              -122.90997772601617,
              49.277703175751945
            ],
            [
              -122.91003271130097,
              49.2775439386518
            ],
            [
              -122.91010378983987,
              49.27755443781718
            ],
            [
              -122.91004746345055,
              49.27771367488335
            ]
          ]
        ]
      },
      "properties": {}
    },
    {
      "type": "Feature",
      "geometry": {
        "type": "Polygon",
        "coordinates": [
          [
            [
              -122.90953972903651,
              49.27771804952083
            ],
            [
              -122.90933588115138,
              49.27768655212272
            ],
            [
              -122.90943244067591,
              49.27743282234901
            ],
            [
              -122.90963628856105,
              49.27746431990913
            ],
            [
              -122.90953972903651,
              49.27771804952083
            ]
          ]
        ]
      },
      "properties": {}
    },
    {
      "type": "Feature",
      "geometry": {
        "type": "Polygon",
        "coordinates": [
          [
            [
              -122.90983477202815,
              49.2777311734306
            ],
            [
              -122.90961751309794,
              49.27769792618548
            ],
            [
              -122.90967652169627,
              49.2775474383739
            ],
            [
              -122.90989109841746,
              49.27758156065049
            ],
            [
              -122.90989109841746,
              49.277582435580264
            ],
            [
              -122.90983477202815,
              49.2777311734306
            ]
          ]
        ]
      },
      "properties": {}
    },
    {
      "type": "Feature",
      "geometry": {
        "type": "Polygon",
        "coordinates": [
          [
            [
              -122.91047179666919,
              49.27786591203733
            ],
            [
              -122.90991121498507,
              49.27777666962477
            ],
            [
              -122.90992864934367,
              49.27773467313942
            ],
            [
              -122.91048520771426,
              49.27782566547915
            ],
            [
              -122.91047179666919,
              49.27786591203733
            ]
          ]
        ]
      },
      "properties": {}
    }
  ]
}