[
  {
    "name": "sugar",
    "description": "Seasoning aisle",
    "latitude": "-122.91039615869522",
    "longitude": "49.277651980182156",
    "image": "/assets/images/sugar.png"
  },
  {
    "name": "salt",
    "description": "Seasoning aisle",
    "latitude": "-122.91037201881409",
    "longitude": "49.277721974421866",
    "image": "/assets/images/salt.png"
  },
  {
    "name": "ketchup",
    "description": "Condiments aisle",
    "latitude": "-122.91022449731825",
    "longitude": "49.27764848046757",
    "image": "/assets/images/ketchup.png"
  },
  {
    "name": "artichoke",
    "description": "Canned foods aisle",
    "latitude": "-122.91049271821976",
    "longitude": "49.277650230324916",
    "image": "/assets/images/artichoke.png"
  },
  {
    "name": "chicken",
    "description": "Meat aisle",
    "latitude": "-122.91030228137969",
    "longitude": "49.27780246767471",
    "image": "/assets/images/chicken.png"
  },
  {
    "name": "beef",
    "description": "Meat aisle",
    "latitude": "-122.91007161140443",
    "longitude": "49.27777097033057",
    "image": "/assets/images/beef.png"
  },
  {
    "name": "milk",
    "description": "Dairy aisle",
    "latitude": "-122.9106080532074",
    "longitude": "49.277721974421866",
    "image": "/assets/images/milk.png"
  },
  {
    "name": "doritos",
    "description": "Chips aisle",
    "latitude": "-122.91002869606017",
    "longitude": "49.27758198584314",
    "image": "/assets/images/doritos.png"
  },
  {
    "name": "banana",
    "description": "Produce aisle",
    "latitude": "-122.90966123342513",
    "longitude": "49.277615233166564",
    "image": "/assets/images/banana.png"
  },
  {
    "name": "watermelon",
    "description": "Produce aisle",
    "latitude": "-122.909819483757",
    "longitude": "49.277576736263725",
    "image": "/assets/images/watermelon.png"
  }
]